
<svg xmlns="http://www.w3.org/2000/svg" version="1.1" xmlns:xlink="http://www.w3.org/1999/xlink" preserveAspectRatio="none" x="0px" y="0px" width="300px" height="250px" viewBox="0 0 300 250">
<defs>
<g id="Layer2_0_FILL">
<path fill="#FFFFFF" stroke="none" d="
M 69.6 44.7
L 72.45 44.7 70.8 51.95 75 51.95 78.95 34.65 74.75 34.65 73.15 41.7 70.3 41.7 71.9 34.65 67.7 34.65 63.65 51.95 67.9 51.95 69.6 44.7
M 58.75 34.65
L 53.7 34.65 49.3 45.8
Q 49 46.35 48.8 47 48.6 47.55 48.45 48.15 48.8 46.3 49.15 44.4 49.45 42.5 49.65 40.6
L 50.45 34.65 46.4 34.65 44.85 51.95 50.2 51.95 52.7 45.95
Q 53.45 44.3 54.05 42.55 54.75 40.85 55.3 39.05 55.05 42.3 54.9 45.55 54.85 48.7 54.7 51.95
L 59.95 51.95 66.25 34.65 62.1 34.65 59.1 43.6
Q 58.75 44.7 58.5 45.75 58.2 46.85 58 47.95
L 58.75 34.65
M 82.75 48.15
L 86 48.15 85.65 51.95 89.75 51.95 90.95 34.65 84.25 34.65 76.8 51.95 81.3 51.95 82.75 48.15
M 83.85 45.2
L 87.05 36.25 86.25 45.2 83.85 45.2
M 93.1 37.65
L 96.25 37.65 93 51.95 97.2 51.95 100.45 37.65 103.35 37.65 104.05 34.65 93.8 34.65 93.1 37.65
M 156.3 34.65
L 152.2 34.65 149.3 47
Q 149.25 47.55 149.05 47.95 148.9 48.45 148.55 48.7 148.2 49 147.6 49 147.1 49 146.75 48.75 146.35 48.5 146.35 47.95 146.35 47.75 146.4 47.45 146.4 47.25 146.5 47
L 149.3 34.65 145.15 34.65 142.75 44.75
Q 142.55 45.65 142.35 46.65 142.2 47.55 142.1 48.45 142.2 49.9 142.95 50.7 143.65 51.55 144.8 51.9 146 52.25 147.3 52.25 148.5 52.25 149.5 52 150.55 51.75 151.4 51.1 152.2 50.5 152.75 49.35 153.05 48.75 153.2 48.2 153.3 47.6 153.45 47
L 156.3 34.65
M 130.45 34.65
L 126.3 34.65 123.3 43.6
Q 123 44.7 122.7 45.75 122.4 46.85 122.2 47.95
L 123 34.65 117.95 34.65 113.5 45.8
Q 113.25 46.35 113 47 112.825 47.48125 112.7 48 113.0140625 46.2234375 113.35 44.4 113.65 42.5 113.85 40.6
L 114.7 34.65 110.6 34.65 109.1 51.95 114.4 51.95 116.9 45.95
Q 117.65 44.3 118.3 42.55 118.95 40.85 119.5 39.05 119.25 42.3 119.1 45.55 119.05 48.7 118.9 51.95
L 124.15 51.95 130.45 34.65
M 134.65 34.6
Q 133.6 34.8 132.8 35.35 131.95 36 131.4 37 131.15 37.65 131 38.35 130.8 38.95 130.65 39.6
L 129.05 46.3
Q 128.9 46.85 128.85 47.3 128.8 47.9 128.8 48.45 128.85 49.95 129.55 50.8 130.3 51.7 131.5 51.95 132.65 52.3 133.95 52.3 135 52.3 135.95 52.15 136.95 52 137.75 51.55 138.6 51.05 139.15 50.1 139.5 49.55 139.7 49 139.85 48.35 140 47.75
L 141.45 41.95
Q 141.65 40.95 141.85 40.05 142.05 39.1 142.05 38.15 142 36.6 141.2 35.8 140.45 34.95 139.3 34.65 138.1 34.4 136.8 34.4 135.7 34.4 134.65 34.6
M 137.65 37.8
Q 137.9 38.05 137.95 38.55 137.9 39.1 137.85 39.65 137.7 40.2 137.55 40.7 137.35 41.5 137.15 42.35 136.95 43.1 136.75 43.95 136.6 44.55 136.45 45.2 136.25 45.75 136.1 46.35 135.95 47 135.85 47.6 135.6 48.2 135.3 48.7 134.95 49.2 134.25 49.2 133.7 49.2 133.25 49 132.95 48.75 132.95 48.15 132.95 47.75 133 47.3 133.15 46.9 133.25 46.5 133.55 45.25 133.85 44.05 134.15 42.9 134.45 41.65 134.65 40.9 134.85 40.15 135.05 39.3 135.3 38.55 135.5 37.9 135.85 37.7 136.2 37.5 136.8 37.5 137.3 37.5 137.65 37.8
M 163.5 51.95
L 164.15 49 159.75 49 163.05 34.65 158.9 34.65 154.9 51.95 163.5 51.95
M 200.05 34.65
L 195.35 34.65 191.8 41.7 191.25 34.65 187.2 34.65 188.8 46 187.4 51.95 191.55 51.95
Q 191.75 50.9 192 49.9 192.25 48.9 192.5 47.9 192.5 47.65 192.6 47.4 192.65 47.05 192.7 46.75 192.8 46.5 192.85 46.35 193.35 45.3 193.95 44.35 194.6 43.4 195.2 42.4
L 200.05 34.65
M 176.75 34.8
Q 175.7 34.65 174.6 34.65
L 168.8 34.65 164.8 51.95 172.1 51.95
Q 173.85 51.95 174.8 51.55 175.7 51.2 176.15 50.25 176.6 49.35 176.95 47.75
L 178.9 39.25
Q 178.95 38.8 179.05 38.5 179.1 38.05 179.1 37.65 179.1 36.25 178.4 35.65 177.7 35 176.75 34.8
M 170.65 49.05
L 169.65 49.05 172.25 37.65 173.7 37.65
Q 174.2 37.6 174.45 37.8 174.8 38 174.8 38.55 174.8 38.7 174.8 38.8 174.8 38.9 174.75 39.05
L 172.9 47.4
Q 172.65 48.45 172.2 48.75 171.7 49.1 170.65 49.05
M 206.35 34.4
Q 205.25 34.4 204.2 34.6 203.15 34.8 202.3 35.35 201.5 36 200.95 37 200.65 37.65 200.55 38.35 200.3 38.95 200.2 39.6
L 198.6 46.3
Q 198.45 46.85 198.4 47.3 198.3 47.9 198.3 48.45 198.4 49.95 199.05 50.8 199.85 51.7 201 51.95 202.2 52.3 203.5 52.3 204.55 52.3 205.5 52.15 206.45 52 207.3 51.55 208.15 51.05 208.7 50.1 209.05 49.55 209.25 49 209.35 48.35 209.5 47.75
L 210.95 41.95
Q 211.15 40.95 211.4 40.05 211.6 39.1 211.6 38.15 211.5 36.6 210.75 35.8 210 34.95 208.8 34.65 207.65 34.4 206.35 34.4
M 207.5 38.55
Q 207.45 39.1 207.35 39.65 207.25 40.2 207.1 40.7 206.9 41.5 206.7 42.35 206.45 43.1 206.25 43.95 206.1 44.55 206 45.2 205.8 45.75 205.65 46.35 205.5 47 205.35 47.6 205.15 48.2 204.8 48.7 204.45 49.2 203.75 49.2 203.2 49.2 202.8 49 202.45 48.75 202.45 48.15 202.45 47.75 202.55 47.3 202.65 46.9 202.8 46.5 203.1 45.25 203.35 44.05 203.7 42.9 204 41.65 204.2 40.9 204.4 40.15 204.6 39.3 204.8 38.55 205 37.9 205.35 37.7 205.7 37.5 206.35 37.5 206.8 37.5 207.15 37.8 207.45 38.05 207.5 38.55
M 218.85 34.65
L 214.7 34.65 212.3 44.75
Q 212.05 45.65 211.85 46.65 211.7 47.55 211.65 48.45 211.7 49.9 212.5 50.7 213.15 51.55 214.35 51.9 215.5 52.25 216.85 52.25 218 52.25 219.05 52 220.1 51.75 220.9 51.1 221.75 50.5 222.3 49.35 222.55 48.75 222.7 48.2 222.85 47.6 223 47
L 225.8 34.65 221.75 34.65 218.85 47
Q 218.75 47.55 218.55 47.95 218.45 48.45 218.1 48.7 217.75 49 217.1 49 216.65 49 216.3 48.75 215.85 48.5 215.85 47.95 215.85 47.75 215.95 47.45 215.95 47.25 216 47
L 218.85 34.65
M 244.95 38.5
Q 245.05 38.05 245.05 37.65 245.05 36.25 244.35 35.65 243.65 35 242.7 34.8 241.65 34.65 240.55 34.65
L 234.75 34.65 230.75 51.95 238.05 51.95
Q 239.8 51.95 240.75 51.55 241.65 51.2 242.05 50.25 242.55 49.35 242.9 47.75
L 244.85 39.25
Q 244.9 38.8 244.95 38.5
M 240.4 37.8
Q 240.75 38 240.75 38.55 240.75 38.7 240.75 38.8 240.75 38.9 240.7 39.05
L 238.8 47.4
Q 238.6 48.45 238.15 48.75 237.65 49.1 236.6 49.05
L 235.55 49.05 238.2 37.65 239.65 37.65
Q 240.15 37.6 240.4 37.8
M 257.5 35.8
Q 256.7 34.95 255.55 34.65 254.35 34.4 253.05 34.4 251.95 34.4 250.9 34.6 249.9 34.8 249.05 35.35 248.2 36 247.65 37 247.4 37.65 247.25 38.35 247.05 38.95 246.9 39.6
L 245.3 46.3
Q 245.2 46.85 245.1 47.3 245.05 47.9 245.05 48.45 245.1 49.95 245.8 50.8 246.55 51.7 247.75 51.95 248.9 52.3 250.2 52.3 251.25 52.3 252.25 52.15 253.2 52 254 51.55 254.85 51.05 255.4 50.1 255.75 49.55 255.95 49 256.1 48.35 256.25 47.75
L 257.7 41.95
Q 257.9 40.95 258.1 40.05 258.3 39.1 258.3 38.15 258.25 36.6 257.5 35.8
M 252.1 37.7
Q 252.45 37.5 253.05 37.5 253.55 37.5 253.9 37.8 254.15 38.05 254.25 38.55 254.15 39.1 254.1 39.65 253.95 40.2 253.8 40.7 253.6 41.5 253.4 42.35 253.2 43.1 253 43.95 252.85 44.55 252.7 45.2 252.5 45.75 252.35 46.35 252.25 47 252.1 47.6 251.9 48.2 251.55 48.7 251.2 49.2 250.5 49.2 249.95 49.2 249.55 49 249.2 48.75 249.2 48.15 249.2 47.75 249.25 47.3 249.4 46.9 249.55 46.5 249.8 45.25 250.1 44.05 250.45 42.9 250.7 41.65 250.9 40.9 251.1 40.15 251.35 39.3 251.55 38.55 251.75 37.9 252.1 37.7 Z"/>
</g>
</defs>

<g transform="matrix( 1, 0, 0, 1, 0,0) ">
<use xlink:href="#Layer2_0_FILL"/>
</g>
</svg>
