
<svg xmlns="http://www.w3.org/2000/svg" version="1.1" xmlns:xlink="http://www.w3.org/1999/xlink" preserveAspectRatio="none" x="0px" y="0px" width="300px" height="250px" viewBox="0 0 300 250">
<defs>
<g id="Layer2_0_FILL">
<path fill="#FFFFFF" stroke="none" d="
M 67.45 58.25
L 62.75 58.25 59.25 65.3 58.7 58.25 54.6 58.25 56.2 69.6 54.85 75.55 58.95 75.55
Q 59.2 74.5 59.45 73.45 59.65 72.5 59.95 71.45 59.95 71.25 60 71 60.1 70.65 60.15 70.35 60.2 70.1 60.3 69.95 60.75 68.9 61.4 67.95 62 67 62.65 66
L 67.45 58.25
M 79 61.7
Q 78.95 60.2 78.2 59.35 77.45 58.55 76.25 58.25 75.1 58 73.75 58 72.65 58 71.6 58.2 70.6 58.4 69.75 58.95 68.95 59.6 68.35 60.6 68.1 61.25 67.95 61.95 67.75 62.55 67.6 63.2
L 66 69.9
Q 65.9 70.45 65.8 70.9 65.75 71.45 65.75 72 65.8 73.55 66.5 74.35 67.25 75.25 68.45 75.55 69.6 75.9 70.95 75.9 71.95 75.9 72.95 75.75 73.9 75.6 74.75 75.15 75.55 74.65 76.1 73.7 76.45 73.15 76.65 72.6 76.8 71.95 76.95 71.35
L 78.4 65.55
Q 78.6 64.55 78.8 63.65 79 62.7 79 61.7
M 73.75 61.1
Q 74.25 61.1 74.6 61.4 74.85 61.65 74.95 62.15 74.85 62.7 74.8 63.25 74.65 63.8 74.5 64.3 74.3 65.1 74.1 65.95 73.9 66.7 73.7 67.55 73.55 68.15 73.4 68.75 73.2 69.35 73.05 69.95 72.95 70.55 72.8 71.2 72.6 71.8 72.25 72.3 71.9 72.8 71.2 72.8 70.65 72.8 70.25 72.6 69.9 72.35 69.9 71.75 69.9 71.35 69.95 70.9 70.1 70.5 70.25 70.1 70.5 68.85 70.8 67.65 71.15 66.5 71.4 65.25 71.6 64.5 71.85 63.75 72.05 62.9 72.25 62.15 72.45 61.5 72.8 61.3 73.15 61.1 73.75 61.1
M 35.25 75.55
L 39.4 75.55 41.15 68.15 45.5 68.15 46.2 65.2 41.85 65.2 42.75 61.25 47.2 61.25 47.9 58.25 39.25 58.25 35.25 75.55
M 32.55 75.55
L 36.6 58.25 32.35 58.25 28.35 75.55 32.55 75.55
M 146.9 58.25
L 143.1 58.25
Q 142.55 60.95 142 63.6 141.35 66.3 140.95 69 140.65 66.3 140.4 63.65 140.05 60.95 139.7 58.25
L 135.7 58.25 131.7 75.55 135.55 75.55 137.7 64.9
Q 137.9 67.6 138.25 70.25 138.55 72.85 138.85 75.55
L 142.95 75.55 146.9 58.25
M 160.1 58.25
L 155.95 58.25 151.95 75.55 160.5 75.55 161.2 72.6 156.75 72.6 160.1 58.25
M 86.25 58.25
L 82.15 58.25 79.7 68.35
Q 79.5 69.25 79.3 70.25 79.15 71.1 79.1 72 79.15 73.45 79.9 74.3 80.6 75.15 81.8 75.5 82.95 75.8 84.25 75.8 85.45 75.8 86.5 75.6 87.5 75.35 88.35 74.7 89.2 74.1 89.75 72.9 90 72.35 90.15 71.8 90.3 71.2 90.4 70.55
L 93.25 58.25 89.2 58.25 86.25 70.55
Q 86.2 71.1 86 71.55 85.85 72 85.5 72.3 85.15 72.6 84.55 72.6 84.05 72.6 83.7 72.35 83.3 72.1 83.3 71.55 83.3 71.35 83.35 71.05 83.35 70.85 83.45 70.55
L 86.25 58.25
M 119.1 70.9
Q 119.05 71.45 119.05 72 119.1 73.55 119.8 74.35 120.55 75.25 121.75 75.55 122.9 75.9 124.2 75.9 125.25 75.9 126.2 75.75 127.2 75.6 128 75.15 128.85 74.65 129.4 73.7 129.75 73.15 129.95 72.6 130.1 71.95 130.25 71.35
L 131.7 65.55
Q 131.9 64.55 132.1 63.65 132.3 62.7 132.3 61.7 132.25 60.2 131.5 59.35 130.7 58.55 129.55 58.25 128.35 58 127.05 58 125.95 58 124.9 58.2 123.85 58.4 123.05 58.95 122.2 59.6 121.65 60.6 121.4 61.25 121.25 61.95 121.05 62.55 120.9 63.2
L 119.3 69.9
Q 119.15 70.45 119.1 70.9
M 127.05 61.1
Q 127.55 61.1 127.9 61.4 128.15 61.65 128.25 62.15 128.15 62.7 128.1 63.25 127.95 63.8 127.8 64.3 127.6 65.1 127.4 65.95 127.2 66.7 127 67.55 126.85 68.15 126.7 68.75 126.5 69.35 126.35 69.95 126.2 70.55 126.1 71.2 125.9 71.8 125.55 72.3 125.2 72.8 124.5 72.8 123.95 72.8 123.55 72.6 123.2 72.35 123.2 71.75 123.2 71.35 123.25 70.9 123.4 70.5 123.55 70.1 123.8 68.85 124.1 67.65 124.45 66.5 124.7 65.25 124.9 64.5 125.1 63.75 125.35 62.9 125.55 62.15 125.75 61.5 126.1 61.3 126.45 61.1 127.05 61.1
M 120.7 58.25
L 116.55 58.25 113.6 67.2
Q 113.25 68.3 112.95 69.35 112.7 70.45 112.45 71.55
L 113.25 58.25 108.2 58.25 103.75 69.4
Q 103.5 69.95 103.3 70.55 103.125 70.9 103 71.3 103.3591796875 69.686328125 103.6 68 103.9 66.1 104.1 64.2
L 104.95 58.25 100.85 58.25 99.35 75.55 104.65 75.55 107.15 69.55
Q 107.9 67.9 108.55 66.15 109.2 64.4 109.75 62.6 109.5 65.85 109.35 69.1 109.3 72.3 109.15 75.55
L 114.4 75.55 120.7 58.25
M 225.95 64.35
Q 226.05 61.3 226.15 58.25
L 220.45 58.25 216.35 75.55 220.3 75.55 222.9 62.7 222.85 75.55 226.3 75.55 232.1 62.7 228.8 75.55 232.75 75.55 236.65 58.25 230.95 58.25
Q 229.6 61.3 228.3 64.35 227 67.4 225.7 70.45 225.9 67.4 225.95 64.35
M 175.9 61.7
Q 175.85 60.2 175.1 59.35 174.35 58.55 173.15 58.25 172 58 170.65 58 169.55 58 168.5 58.2 167.5 58.4 166.65 58.95 165.85 59.6 165.3 60.6 165 61.25 164.85 61.95 164.65 62.55 164.5 63.2
L 162.95 69.9
Q 162.8 70.45 162.7 70.9 162.65 71.45 162.65 72 162.7 73.55 163.4 74.35 164.15 75.25 165.35 75.55 166.5 75.9 167.85 75.9 168.85 75.9 169.85 75.75 170.8 75.6 171.65 75.15 172.45 74.65 173 73.7 173.35 73.15 173.55 72.6 173.7 71.95 173.85 71.35
L 175.3 65.55
Q 175.5 64.55 175.7 63.65 175.9 62.7 175.9 61.7
M 170.65 61.1
Q 171.15 61.1 171.5 61.4 171.75 61.65 171.85 62.15 171.75 62.7 171.7 63.25 171.55 63.8 171.45 64.3 171.2 65.1 171 65.95 170.8 66.7 170.6 67.55 170.45 68.15 170.3 68.75 170.1 69.35 170 69.95 169.85 70.55 169.7 71.2 169.5 71.8 169.15 72.3 168.8 72.8 168.1 72.8 167.55 72.8 167.15 72.6 166.8 72.35 166.8 71.75 166.8 71.35 166.85 70.9 167 70.5 167.15 70.1 167.4 68.85 167.7 67.65 168.05 66.5 168.3 65.25 168.5 64.5 168.75 63.75 168.95 62.9 169.15 62.15 169.35 61.5 169.7 61.3 170.05 61.1 170.65 61.1
M 187.45 61.25
L 188.15 58.25 177.9 58.25 177.25 61.25 180.35 61.25 177.1 75.55 181.3 75.55 184.55 61.25 187.45 61.25
M 201.5 58.95
Q 200.65 59.6 200.1 60.6 199.85 61.25 199.7 61.95 199.5 62.55 199.35 63.2
L 197.75 69.9
Q 197.6 70.45 197.55 70.9 197.5 71.45 197.5 72 197.55 73.55 198.25 74.35 199 75.25 200.2 75.55 201.35 75.9 202.65 75.9 203.7 75.9 204.65 75.75 205.65 75.6 206.45 75.15 207.3 74.65 207.85 73.7 208.2 73.15 208.4 72.6 208.55 71.95 208.7 71.35
L 210.15 65.55
Q 210.35 64.55 210.55 63.65 210.75 62.7 210.75 61.7 210.7 60.2 209.95 59.35 209.15 58.55 208 58.25 206.8 58 205.5 58 204.4 58 203.35 58.2 202.3 58.4 201.5 58.95
M 201.7 70.9
Q 201.85 70.5 202 70.1 202.25 68.85 202.55 67.65 202.9 66.5 203.15 65.25 203.35 64.5 203.55 63.75 203.75 62.9 204 62.15 204.2 61.5 204.55 61.3 204.9 61.1 205.5 61.1 206 61.1 206.35 61.4 206.6 61.65 206.7 62.15 206.6 62.7 206.55 63.25 206.4 63.8 206.25 64.3 206.05 65.1 205.85 65.95 205.65 66.7 205.45 67.55 205.3 68.15 205.15 68.75 204.95 69.35 204.8 69.95 204.65 70.55 204.55 71.2 204.35 71.8 204 72.3 203.65 72.8 202.95 72.8 202.4 72.8 202 72.6 201.65 72.35 201.65 71.75 201.65 71.35 201.7 70.9
M 195.5 61.25
L 198.4 61.25 199.05 58.25 188.85 58.25 188.15 61.25 191.25 61.25 188 75.55 192.25 75.55 195.5 61.25
M 243.45 75.55
L 247.55 75.55 248.75 58.25 242.05 58.25 234.6 75.55 239.1 75.55 240.55 71.75 243.8 71.75 243.45 75.55
M 244.85 59.85
L 244.05 68.75 241.65 68.75 244.85 59.85
M 255.9 58.25
L 251.75 58.25 253.25 65.8 247.75 75.55 252.25 75.55 255.25 69.05 255.95 75.55 260.05 75.55 258.65 66.5 263.65 58.25 259.2 58.25 256.6 63.4 255.9 58.25
M 268 71.8
L 264.3 71.8 263.4 75.55 267.1 75.55 268 71.8
M 274.25 61.05
Q 274.25 59.8 273.6 59.1 272.95 58.4 272 58.2 271.05 57.9 269.9 57.9 269.3 57.9 268.7 58 268 58.05 267.45 58.25 266.65 58.55 266.2 58.95 265.7 59.3 265.45 59.85 265.15 60.4 264.95 61.15 264.8 61.65 264.75 62.2 264.6 62.7 264.55 63.2
L 268.05 63.2
Q 268.1 62.9 268.25 62.5 268.35 62 268.45 61.6 268.6 61.15 268.7 60.95 268.9 60.75 269.15 60.6 269.35 60.5 269.7 60.5 270.15 60.5 270.4 60.75 270.6 60.95 270.6 61.45 270.6 62.5 270.15 63.2 269.55 63.8 268.8 64.3 268.05 64.75 267.3 65.25 266.55 65.75 265.9 66.4 265.55 66.85 265.35 67.45 265.15 68.1 265 68.7 264.85 69.35 264.75 69.9
L 268.4 69.9
Q 268.6 69 268.75 68.5 268.95 67.95 269.3 67.6 269.7 67.2 270.45 66.7 270.9 66.35 271.3 66.1 271.7 65.8 272.15 65.55 272.7 65.1 273.05 64.85 273.3 64.5 273.5 64.05 273.7 63.65 273.95 63.05 274.05 62.55 274.15 62.05 274.25 61.6 274.25 61.05 Z"/>
</g>
</defs>

<g transform="matrix( 1, 0, 0, 1, 0,0) ">
<use xlink:href="#Layer2_0_FILL"/>
</g>
</svg>
