<?xml version="1.0" encoding="utf-8"?>
<!-- Generator: Adobe Illustrator 19.2.1, SVG Export Plug-In . SVG Version: 6.00 Build 0)  -->
<svg version="1.1" id="gwd-image_9" xmlns="http://www.w3.org/2000/svg" xmlns:xlink="http://www.w3.org/1999/xlink" x="0px"
	 y="0px" viewBox="0 0 728 90" style="enable-background:new 0 0 728 90;" xml:space="preserve" preserveAspectRatio="xMinYMin none">
<style type="text/css">
	.st0{fill:#FFFFFF;}
</style>
<g transform="matrix( 0.717681884765625, 0, 0, 0.717681884765625, 57.95,44.8) ">
	<g>
		<g id="Layer0_0_FILL">
			<path class="st0" d="M68.3-12.7H63V2.3c0,2.1-0.5,3.8-1.5,5c-1,1.2-2.3,1.8-4,1.8c-1.7,0-3-0.6-3.9-1.9s-1.4-2.9-1.4-5.1v-14.8
				h-5.3V2.3c0,2.6,0.5,4.8,1.4,6.5c0.9,1.8,2.2,3.2,3.8,4.1c1.6,0.9,3.5,1.4,5.6,1.5c3.4,0,6.1-1.1,8-3.2c1.9-2.1,2.8-5.1,2.8-9
				V-12.7 M80.7-4.2c-0.3-0.4-0.4-0.8-0.4-1.3c0-0.6,0.3-1.2,0.8-1.6c0.6-0.5,1.6-0.7,3-0.8c1.2,0,2.3,0.2,3.3,0.7
				c1,0.5,1.9,1.1,2.8,2l3.8-3.7c-1.2-1.3-2.7-2.4-4.3-3.1c-1.6-0.7-3.4-1.1-5.4-1.1c-1.8,0-3.4,0.3-4.8,0.9
				c-1.4,0.6-2.6,1.5-3.4,2.7s-1.3,2.5-1.3,4.1c0,1.7,0.4,3.1,1.1,4.1c0.7,1,1.6,1.8,2.9,2.4C80,1.8,81.4,2.3,83,2.6
				C84.7,3,86,3.4,86.8,3.7c0.9,0.3,1.4,0.7,1.8,1.1S89,5.7,89,6.2c0,1-0.4,1.7-1.2,2.2c-0.8,0.5-1.9,0.7-3.5,0.7
				c-1.3,0-2.5-0.2-3.7-0.7c-1.2-0.5-2.2-1.2-3.1-2.3l-3.8,3.4c1,1.5,2.4,2.7,4.3,3.5c1.8,0.8,3.8,1.3,6.1,1.3
				c2.4,0,4.4-0.4,5.9-1.1s2.7-1.7,3.4-2.9c0.7-1.3,1.1-2.8,1.1-4.4c0-1.4-0.3-2.6-0.8-3.6c-0.5-0.9-1.2-1.7-2-2.3
				c-0.9-0.6-1.8-1.1-2.8-1.4c-1.1-0.3-2.1-0.6-3.2-0.8c-1.4-0.3-2.5-0.6-3.3-0.9C81.6-3.5,81-3.9,80.7-4.2 M29.4-12.7h-5.3v26.6
				h18.7V8.6H29.4V-12.7 M19-4.2c0-1.9-0.4-3.5-1.3-4.7c-0.8-1.2-1.9-2.2-3.3-2.8c-1.4-0.6-2.9-0.9-4.6-0.9H-1.8v26.6h5.3V4.4h5.8
				c1.8,0,3.5-0.3,4.9-0.9C15.8,2.9,17,2,17.8,0.8C18.6-0.5,19-2.2,19-4.2 M9.8-0.7H3.6v-6.8h6.1c1.2,0,2.1,0.3,2.9,0.9
				c0.7,0.5,1,1.4,1,2.5c0,1.2-0.3,2-1,2.6C12-1,11-0.7,9.8-0.7z"/>
		</g>
	</g>
</g>
<g transform="matrix( 0.717681884765625, 0, 0, 0.717681884765625, 57.95,44.8) ">
	<g>
		<g id="Layer0_1_FILL">
			<path class="st0" d="M621.8-9.3c-0.8-1.2-1.9-2.2-3.3-2.8c-1.4-0.6-2.9-0.9-4.6-0.9h-11.7v26.6h5.3V4.1h5.9c1.8,0,3.5-0.3,5-0.9
				c1.4-0.6,2.6-1.5,3.4-2.8c0.8-1.3,1.3-3,1.3-5C623-6.5,622.6-8.1,621.8-9.3 M617.6-4.5c0,1.2-0.3,2-1,2.6C616-1.3,615-1,613.8-1
				h-6.2v-6.8h6.1c1.2,0,2.2,0.3,2.8,0.8C617.2-6.5,617.6-5.7,617.6-4.5 M584.2-13h-5.3v11.2c0,0.5,0,1.1,0,1.9c0,0.8,0,1.5,0,2.2
				c0,0.7,0,1.2,0,1.6c-0.2-0.4-0.5-0.8-0.8-1.4c-0.4-0.5-0.7-1.1-1-1.6l-9.4-14h-5.1v26.6h5.3V1.9c0-0.5,0-1.2,0-1.9
				c0-0.8,0-1.5-0.1-2.2c0-0.7,0-1.3,0-1.6c0.2,0.3,0.4,0.8,0.8,1.3c0.4,0.6,0.7,1.1,1,1.6l9.8,14.5h4.8V-13 M528.1-13h-5.4v26.6
				h5.4V-13 M555.7-6.9c-0.9-2.1-2.2-3.7-4-4.8c-1.7-1.2-3.8-1.8-6.3-1.8c-2.4,0-4.5,0.6-6.2,1.8c-1.7,1.1-3,2.7-3.9,4.8
				c-0.9,2-1.4,4.4-1.4,7.1s0.5,5.1,1.4,7.1c0.9,2.1,2.2,3.7,3.9,4.8c1.7,1.2,3.8,1.8,6.2,1.8c2.4,0,4.5-0.6,6.3-1.8
				c1.7-1.1,3.1-2.7,4-4.8c0.9-2,1.3-4.4,1.3-7.1S556.6-4.9,555.7-6.9 M540.1-4c0.4-1.3,1.1-2.3,2-3c0.9-0.8,2-1.1,3.5-1.1
				c1.4,0,2.6,0.4,3.5,1.1c0.9,0.7,1.6,1.7,2,3c0.4,1.3,0.7,2.7,0.7,4.3s-0.2,3-0.7,4.3c-0.4,1.3-1,2.3-2,3s-2.1,1.1-3.5,1.1
				c-1.4,0-2.5-0.4-3.5-1.1c-0.9-0.7-1.6-1.7-2-3c-0.4-1.3-0.6-2.7-0.6-4.3S539.7-2.8,540.1-4 M504.1-13h-5.4v26.6h18.7V8.3h-13.4
				V-13 M480.4-13h-5.4v26.6h18.7V8.3h-13.3V-13 M467.8-13h-5.4v26.6h5.4V-13 M440.9-1l-5.6-12h-5.1v26.6h5.3V3.8c0-0.5,0-1.1,0-1.9
				c0-0.8,0-1.5-0.1-2.2c0-0.7,0-1.3,0-1.6c0.2,0.5,0.5,1.2,0.8,2c0.3,0.8,0.7,1.6,1,2.4l5.4,11.8L448,2.3c0.4-0.8,0.7-1.6,1.1-2.4
				c0.3-0.8,0.6-1.5,0.8-2c0,0.4,0,0.9,0,1.6c0,0.7,0,1.4,0,2.2c0,0.8,0,1.4,0,1.9v9.7h5.3V-13h-5.3l-5.4,12c-0.3,0.8-0.7,1.6-1,2.4
				c-0.3,0.8-0.6,1.5-0.8,2c-0.1-0.3-0.3-0.7-0.5-1.2c-0.2-0.5-0.4-1-0.6-1.6S441.2-0.5,440.9-1 M376.1-7.5
				c-1.2-1.9-2.7-3.3-4.7-4.2c-2-0.9-4.2-1.3-6.8-1.3h-8.4v26.6h8c1.7,0,3.4-0.3,5-0.8c1.6-0.5,3.1-1.3,4.4-2.4
				c1.3-1.1,2.3-2.4,3.1-4.1c0.8-1.7,1.1-3.7,1.1-6C377.8-3,377.3-5.6,376.1-7.5 M361.6-7.9h2.8c2.8,0,4.8,0.7,6.1,2.1
				c1.3,1.3,1.9,3.4,1.9,6.1c0,1.6-0.3,3-0.9,4.2c-0.6,1.2-1.5,2.2-2.7,2.8s-2.7,1-4.6,1h-2.6V-7.9 M402.4-9.6v3.9h4.6v19.2h5.3V-13
				h-4.4c-0.3,1.1-0.9,1.9-1.8,2.5C405.2-10,403.9-9.7,402.4-9.6 M344.2-3.2h-7.6v-4.6h13.1V-13h-18.5v26.6h19V8.3h-13.7V2h7.6V-3.2
				 M319.2-3.2h-7.7v-4.6h13.2V-13h-18.5v26.6h19V8.3h-13.7V2h7.7V-3.2 M274.6-13h-5.3v11.2c0,0.5,0,1.1,0,1.9c0,0.8,0,1.5,0.1,2.2
				c0,0.7,0,1.2,0,1.6c-0.2-0.4-0.5-0.8-0.8-1.4c-0.4-0.5-0.7-1.1-1-1.6l-9.5-14H253v26.6h5.3V1.9c0-0.5,0-1.2,0-1.9
				c0-0.8,0-1.5,0-2.2c0-0.7,0-1.3,0-1.6c0.2,0.3,0.4,0.8,0.8,1.3s0.7,1.1,1.1,1.6l9.8,14.5h4.8V-13 M280.2-13v5.2h7.6v21.3h5.4
				V-7.8h7.6V-13H280.2 M237.6-13h-5.1l-10.2,26.6h5.7l2.1-5.9h9.7l2.1,5.9h5.9L237.6-13 M234.3-4.5c0.2-0.7,0.4-1.3,0.6-1.8
				c0.1,0.5,0.3,1.1,0.6,1.8c0.2,0.7,0.5,1.5,0.7,2.3l1.7,4.8h-6l1.7-4.8C233.9-3,234.1-3.8,234.3-4.5 M218.1-4.6
				c0-1.9-0.4-3.5-1.3-4.7c-0.8-1.2-1.9-2.2-3.3-2.8c-1.4-0.6-2.9-0.9-4.6-0.9h-12.4v26.6h5.3V4h5.4l4.8,9.5h6.1L213,3.2
				c1.7-0.6,3-1.6,3.8-2.9C217.7-1,218.1-2.6,218.1-4.6 M201.9-1v-6.8h6.9c1.2,0,2.1,0.3,2.8,0.8c0.7,0.5,1,1.4,1,2.6
				c0,1.2-0.3,2-1,2.6c-0.6,0.6-1.6,0.8-2.8,0.8H201.9 M181.1-13H176l-10.2,26.6h5.7l2.1-5.9h9.8l2.1,5.9h5.9L181.1-13 M177.1-2.2
				c0.3-0.8,0.5-1.6,0.8-2.3c0.2-0.7,0.4-1.3,0.6-1.8c0.1,0.5,0.3,1.1,0.6,1.8c0.2,0.7,0.5,1.5,0.8,2.3l1.7,4.8h-6.1L177.1-2.2
				 M160.6-13h-5.3V1.9c0,2.1-0.5,3.8-1.5,5c-1,1.2-2.3,1.8-4,1.8c-1.7,0-3-0.6-4-1.8c-1-1.2-1.4-2.9-1.4-5.1V-13h-5.3V1.9
				c0,2.6,0.4,4.8,1.3,6.5c0.9,1.8,2.2,3.2,3.8,4.1c1.6,0.9,3.5,1.4,5.6,1.4c3.4,0,6.1-1.1,7.9-3.2c1.9-2.1,2.8-5.1,2.8-9V-13
				 M117.2-4.1c0.5-1.3,1.2-2.2,2.2-2.9c0.9-0.7,2.1-1.1,3.4-1.1c1.4,0,2.5,0.4,3.3,1c0.8,0.6,1.4,1.4,1.8,2.4l5.1-2
				c-0.8-2.1-2.1-3.7-3.6-4.9c-1.6-1.2-3.7-1.8-6.4-1.8c-2.3,0-4.4,0.6-6.1,1.8c-1.8,1.1-3.1,2.7-4.1,4.8c-1,2-1.5,4.4-1.6,7.1
				c0,2.8,0.5,5.3,1.4,7.3c1,2,2.3,3.6,4.1,4.7c1.7,1.1,3.8,1.7,6.1,1.7c2.1,0,3.9-0.5,5.5-1.3c1.6-0.8,2.9-2,3.8-3.6
				c0.9-1.6,1.4-3.6,1.5-5.8v-3.5h-9.6v5h4.2c-0.1,1.2-0.6,2.1-1.3,2.8c-0.8,0.8-2.1,1.2-3.8,1.2c-1.3,0-2.5-0.4-3.4-1.1
				s-1.7-1.7-2.2-3s-0.7-2.7-0.7-4.4S116.7-2.9,117.2-4.1 M707.7-3.2H700v-4.6h13.2V-13h-18.5v26.6h19V8.3H700V2h7.7V-3.2
				 M668.4-8.2h8.3c0.5,0,1.2,0,1.9,0c0.7,0,1.3,0,2-0.1c0.6,0,1.1,0,1.5,0c-0.2,0.2-0.5,0.5-0.9,0.9c-0.4,0.4-0.7,0.8-1.1,1.3
				c-0.4,0.4-0.7,0.8-1,1.2L667.6,8.8v4.7h20.9V8.7h-9.1c-0.5,0-1.2,0-1.9,0s-1.4,0-2,0.1c-0.7,0-1.2,0-1.5,0
				c0.2-0.2,0.5-0.6,0.9-0.9c0.4-0.4,0.8-0.8,1.1-1.3c0.4-0.4,0.7-0.8,1-1.2l11.4-13.6V-13h-20V-8.2 M661.2-13h-5.4v26.6h5.4V-13
				 M649.7-4.6c0-1.9-0.4-3.5-1.3-4.7c-0.8-1.2-1.9-2.2-3.3-2.8c-1.4-0.6-2.9-0.9-4.6-0.9h-12.4v26.6h5.3V4h5.4l4.8,9.5h6.1
				l-5.1-10.3c1.7-0.6,3-1.6,3.8-2.9C649.3-1,649.7-2.6,649.7-4.6 M633.5-1v-6.8h7c1.2,0,2.1,0.3,2.8,0.8c0.7,0.5,1,1.4,1,2.6
				c0,1.2-0.3,2-1,2.6c-0.6,0.6-1.6,0.8-2.8,0.8H633.5z"/>
		</g>
	</g>
</g>
<g transform="matrix( 0.717681884765625, 0, 0, 0.717681884765625, 335.4,32.4) ">
	<g transform="matrix( 1, 0, 0, 1, 0,0) ">
		<g>
			<g id="plus_bubble_dollar_0_Layer0_0_FILL">
				<path class="st0" d="M11.2,11.6c-0.2-0.4-0.5-0.7-0.9-0.9c-0.4-0.3-0.8-0.5-1.2-0.6C8.8,9.9,8.3,9.8,7.8,9.7
					C7.2,9.6,6.8,9.4,6.5,9.3C6.2,9.2,5.9,9.1,5.8,8.9C5.7,8.8,5.6,8.6,5.6,8.3c0-0.2,0.1-0.5,0.3-0.7c0.2-0.2,0.6-0.3,1.2-0.3
					c0.5,0,1,0.1,1.4,0.3C9,7.9,9.4,8.2,9.7,8.6L11.3,7c-0.4-0.4-0.8-0.7-1.3-1C9.5,5.7,9,5.5,8.4,5.3V3.7H6.2v1.6
					C5.6,5.4,5.1,5.6,4.7,5.9c-0.4,0.3-0.8,0.6-1,1C3.4,7.4,3.3,7.9,3.3,8.4c0,0.7,0.2,1.3,0.5,1.8c0.3,0.4,0.7,0.8,1.2,1
					c0.5,0.2,1.2,0.4,1.8,0.6C7.5,12,8,12.1,8.3,12.2c0.4,0.1,0.6,0.3,0.8,0.4c0.1,0.2,0.2,0.4,0.2,0.6c0,0.4-0.2,0.7-0.5,0.9
					c-0.3,0.2-0.8,0.3-1.4,0.3c-0.6,0-1.1-0.1-1.5-0.3c-0.5-0.2-1-0.5-1.4-0.9l-1.6,1.4c0.4,0.5,0.8,1,1.4,1.3
					c0.6,0.3,1.2,0.5,1.9,0.6v1.6h2.2v-1.6c1.1-0.2,1.9-0.5,2.4-1.1c0.5-0.6,0.8-1.4,0.8-2.3C11.6,12.5,11.5,12,11.2,11.6z"/>
			</g>
		</g>
	</g>
</g>
<g>
	
		<image style="overflow:visible;" width="58" height="35" xlink:href="CB1E5BC5.png"  transform="matrix(1 0 0 1 625.8174 28.0879)">
	</image>
	<g>
		<g>
			<path class="st0" d="M627.2,41.2V30.4h7.5v2.1h-5.3v1.9h3.1v2.1h-3.1v2.6h5.6v2.1H627.2z"/>
			<path class="st0" d="M642.3,41.2h-2.1l-3.8-10.8h2.4l2,6.2c0.2,0.6,0.4,1.4,0.5,1.8c0.1-0.4,0.3-1.1,0.5-1.8l2-6.2h2.4
				L642.3,41.2z"/>
			<path class="st0" d="M648.1,41.2V30.4h7.5v2.1h-5.3v1.9h3.1v2.1h-3.1v2.6h5.6v2.1H648.1z"/>
			<path class="st0" d="M664.4,41.2l-1.9-3.9h-2.2v3.9h-2.2V30.4h5c2,0,3.7,1.1,3.7,3.4c0,1.6-0.7,2.6-2.1,3.2l2.1,4.2H664.4z
				 M663.1,32.5h-2.8v2.8h2.8c1,0,1.5-0.5,1.5-1.4C664.6,32.9,664,32.5,663.1,32.5z"/>
			<path class="st0" d="M673.8,37v4.3h-2.2V37l-4.1-6.6h2.5l1.5,2.6c0.4,0.6,1,1.7,1.2,2.1c0.2-0.4,0.8-1.4,1.2-2.1l1.5-2.6h2.4
				L673.8,37z"/>
			<path class="st0" d="M633.8,58.7h-3.2V47.9h3.4c3.1,0,5.4,1.4,5.4,5.4C639.3,57.1,636.6,58.7,633.8,58.7z M633.9,50h-1.1v6.6h1.1
				c2.3,0,3.3-1.3,3.3-3.3C637.1,51.1,636.1,50,633.9,50z"/>
			<path class="st0" d="M647.7,58.7l-1.9-3.9h-2.2v3.9h-2.2V47.9h5c2,0,3.7,1.1,3.7,3.4c0,1.6-0.7,2.6-2.1,3.2l2.1,4.2H647.7z
				 M646.4,50h-2.8v2.8h2.8c1,0,1.5-0.5,1.5-1.4C648,50.4,647.4,50,646.4,50z"/>
			<path class="st0" d="M659.4,58.7l-0.8-2.4h-3.9l-0.8,2.4h-2.3l4.1-10.8h2.1l4.1,10.8H659.4z M657.1,52.3
				c-0.2-0.6-0.4-1.3-0.5-1.7c-0.1,0.4-0.3,1-0.5,1.7l-0.7,2h2.5L657.1,52.3z"/>
			<path class="st0" d="M671.9,58.7h-2.1l-1.3-5.5c-0.2-0.6-0.3-1.4-0.4-1.8c0,0.4-0.2,1.2-0.4,1.8l-1.4,5.5h-2l-2.2-10.8h2.2
				l0.9,5.3c0.1,0.5,0.2,1.3,0.3,1.8c0.1-0.4,0.2-1.2,0.4-1.8l1.3-5.3h1.9l1.3,5.3c0.1,0.5,0.3,1.3,0.4,1.8c0-0.4,0.2-1.3,0.3-1.8
				l0.9-5.3h2.2L671.9,58.7z"/>
		</g>
	</g>
</g>
</svg>
